PCBNEW-LibModule-V1  Sat 17 Feb 2018 00:34:29 AWST
# encoding utf-8
Units mm
$INDEX
DIP-14__300_ELL
DIP-40__600_ELL
HEADER-50
PIN_ARRAY_20X2
PIN_ARRAY_2X1
SIL-10
$EndINDEX
$MODULE DIP-14__300_ELL
Po 163.83 125.73 0 15 00200000 00000000 ~~
Li DIP-14__300_ELL
Cd 14 pins DIL package, elliptical pads
Kw DIL
Sc 0
AR /5A1014FA
Op 0 0 0
T0 -5.08 -1.27 1.524 1.143 0 0.3048 N V 21 N "U2"
T1 1.27 1.27 1.524 1.143 0 0.3048 N V 21 N "74LS32"
DS -10.16 -2.54 10.16 -2.54 0.381 21
DS 10.16 2.54 -10.16 2.54 0.381 21
DS -10.16 2.54 -10.16 -2.54 0.381 21
DS -10.16 -1.27 -8.89 -1.27 0.381 21
DS -8.89 -1.27 -8.89 1.27 0.381 21
DS -8.89 1.27 -10.16 1.27 0.381 21
DS 10.16 -2.54 10.16 2.54 0.381 21
$PAD
Sh "1" R 1.5748 2.286 0 0 0
Dr 0.8128 0 0
At STD N 00E0FFFF
Ne 0 ""
Po -7.62 3.81
$EndPAD
$PAD
Sh "2" O 1.5748 2.286 0 0 0
Dr 0.8128 0 0
At STD N 00E0FFFF
Ne 0 ""
Po -5.08 3.81
$EndPAD
$PAD
Sh "3" O 1.5748 2.286 0 0 0
Dr 0.8128 0 0
At STD N 00E0FFFF
Ne 0 ""
Po -2.54 3.81
$EndPAD
$PAD
Sh "4" O 1.5748 2.286 0 0 0
Dr 0.8128 0 0
At STD N 00E0FFFF
Ne 0 ""
Po 0 3.81
$EndPAD
$PAD
Sh "5" O 1.5748 2.286 0 0 0
Dr 0.8128 0 0
At STD N 00E0FFFF
Ne 0 ""
Po 2.54 3.81
$EndPAD
$PAD
Sh "6" O 1.5748 2.286 0 0 0
Dr 0.8128 0 0
At STD N 00E0FFFF
Ne 0 ""
Po 5.08 3.81
$EndPAD
$PAD
Sh "7" O 1.5748 2.286 0 0 0
Dr 0.8128 0 0
At STD N 00E0FFFF
Ne 41 "GND"
Po 7.62 3.81
$EndPAD
$PAD
Sh "8" O 1.5748 2.286 0 0 0
Dr 0.8128 0 0
At STD N 00E0FFFF
Ne 43 "N-0000019"
Po 7.62 -3.81
$EndPAD
$PAD
Sh "9" O 1.5748 2.286 0 0 0
Dr 0.8128 0 0
At STD N 00E0FFFF
Ne 34 "/PORT60"
Po 5.08 -3.81
$EndPAD
$PAD
Sh "10" O 1.5748 2.286 0 0 0
Dr 0.8128 0 0
At STD N 00E0FFFF
Ne 31 "/M1"
Po 2.54 -3.81
$EndPAD
$PAD
Sh "11" O 1.5748 2.286 0 0 0
Dr 0.8128 0 0
At STD N 00E0FFFF
Ne 0 ""
Po 0 -3.81
$EndPAD
$PAD
Sh "12" O 1.5748 2.286 0 0 0
Dr 0.8128 0 0
At STD N 00E0FFFF
Ne 0 ""
Po -2.54 -3.81
$EndPAD
$PAD
Sh "13" O 1.5748 2.286 0 0 0
Dr 0.8128 0 0
At STD N 00E0FFFF
Ne 0 ""
Po -5.08 -3.81
$EndPAD
$PAD
Sh "14" O 1.5748 2.286 0 0 0
Dr 0.8128 0 0
At STD N 00E0FFFF
Ne 44 "VCC"
Po -7.62 -3.81
$EndPAD
$SHAPE3D
Na "dil/dil_14.wrl"
Sc 1 1 1
Of 0 0 0
Ro 0 0 0
$EndSHAPE3D
$EndMODULE DIP-14__300_ELL
$MODULE DIP-40__600_ELL
Po 143.51 109.22 0 15 00200000 00000000 ~~
Li DIP-40__600_ELL
Cd Module Dil 40 pins, pads elliptiques, e=600 mils
Kw DIL
Sc 0
AR /5A101344
Op 0 0 0
T0 -19.05 -3.81 1.778 1.143 0 0.3048 N V 21 N "U1"
T1 0 2.54 1.778 1.778 0 0.3048 N V 21 N "5380"
DS -26.67 -1.27 -25.4 -1.27 0.381 21
DS -25.4 -1.27 -25.4 1.27 0.381 21
DS -25.4 1.27 -26.67 1.27 0.381 21
DS -26.67 -6.35 26.67 -6.35 0.381 21
DS 26.67 -6.35 26.67 6.35 0.381 21
DS 26.67 6.35 -26.67 6.35 0.381 21
DS -26.67 6.35 -26.67 -6.35 0.381 21
$PAD
Sh "1" R 1.5748 2.286 0 0 0
Dr 0.8128 0 0
At STD N 00E0FFFF
Ne 8 "/D0"
Po -24.13 7.62
$EndPAD
$PAD
Sh "2" O 1.5748 2.286 0 0 0
Dr 0.8128 0 0
At STD N 00E0FFFF
Ne 23 "/DB7"
Po -21.59 7.62
$EndPAD
$PAD
Sh "3" O 1.5748 2.286 0 0 0
Dr 0.8128 0 0
At STD N 00E0FFFF
Ne 22 "/DB6"
Po -19.05 7.62
$EndPAD
$PAD
Sh "4" O 1.5748 2.286 0 0 0
Dr 0.8128 0 0
At STD N 00E0FFFF
Ne 21 "/DB5"
Po -16.51 7.62
$EndPAD
$PAD
Sh "5" O 1.5748 2.286 0 0 0
Dr 0.8128 0 0
At STD N 00E0FFFF
Ne 20 "/DB4"
Po -13.97 7.62
$EndPAD
$PAD
Sh "6" O 1.5748 2.286 0 0 0
Dr 0.8128 0 0
At STD N 00E0FFFF
Ne 19 "/DB3"
Po -11.43 7.62
$EndPAD
$PAD
Sh "7" O 1.5748 2.286 0 0 0
Dr 0.8128 0 0
At STD N 00E0FFFF
Ne 18 "/DB2"
Po -8.89 7.62
$EndPAD
$PAD
Sh "8" O 1.5748 2.286 0 0 0
Dr 0.8128 0 0
At STD N 00E0FFFF
Ne 17 "/DB1"
Po -6.35 7.62
$EndPAD
$PAD
Sh "9" O 1.5748 2.286 0 0 0
Dr 0.8128 0 0
At STD N 00E0FFFF
Ne 16 "/DB0"
Po -3.81 7.62
$EndPAD
$PAD
Sh "10" O 1.5748 2.286 0 0 0
Dr 0.8128 0 0
At STD N 00E0FFFF
Ne 24 "/DBP"
Po -1.27 7.62
$EndPAD
$PAD
Sh "11" O 1.5748 2.286 0 0 0
Dr 0.8128 0 0
At STD N 00E0FFFF
Ne 41 "GND"
Po 1.27 7.62
$EndPAD
$PAD
Sh "12" O 1.5748 2.286 0 0 0
Dr 0.8128 0 0
At STD N 00E0FFFF
Ne 39 "/SEL"
Po 3.81 7.62
$EndPAD
$PAD
Sh "13" O 1.5748 2.286 0 0 0
Dr 0.8128 0 0
At STD N 00E0FFFF
Ne 6 "/BSY"
Po 6.35 7.62
$EndPAD
$PAD
Sh "14" O 1.5748 2.286 0 0 0
Dr 0.8128 0 0
At STD N 00E0FFFF
Ne 4 "/ACK"
Po 8.89 7.62
$EndPAD
$PAD
Sh "15" O 1.5748 2.286 0 0 0
Dr 0.8128 0 0
At STD N 00E0FFFF
Ne 5 "/ATN"
Po 11.43 7.62
$EndPAD
$PAD
Sh "16" O 1.5748 2.286 0 0 0
Dr 0.8128 0 0
At STD N 00E0FFFF
Ne 38 "/RST"
Po 13.97 7.62
$EndPAD
$PAD
Sh "17" O 1.5748 2.286 0 0 0
Dr 0.8128 0 0
At STD N 00E0FFFF
Ne 27 "/I/O"
Po 16.51 7.62
$EndPAD
$PAD
Sh "18" O 1.5748 2.286 0 0 0
Dr 0.8128 0 0
At STD N 00E0FFFF
Ne 7 "/C/D"
Po 19.05 7.62
$EndPAD
$PAD
Sh "19" O 1.5748 2.286 0 0 0
Dr 0.8128 0 0
At STD N 00E0FFFF
Ne 32 "/MSG"
Po 21.59 7.62
$EndPAD
$PAD
Sh "20" O 1.5748 2.286 0 0 0
Dr 0.8128 0 0
At STD N 00E0FFFF
Ne 36 "/REQ"
Po 24.13 7.62
$EndPAD
$PAD
Sh "21" O 1.5748 2.286 0 0 0
Dr 0.8128 0 0
At STD N 00E0FFFF
Ne 43 "N-0000019"
Po 24.13 -7.62
$EndPAD
$PAD
Sh "22" O 1.5748 2.286 0 0 0
Dr 0.8128 0 0
At STD N 00E0FFFF
Ne 0 ""
Po 21.59 -7.62
$EndPAD
$PAD
Sh "23" O 1.5748 2.286 0 0 0
Dr 0.8128 0 0
At STD N 00E0FFFF
Ne 0 ""
Po 19.05 -7.62
$EndPAD
$PAD
Sh "24" O 1.5748 2.286 0 0 0
Dr 0.8128 0 0
At STD N 00E0FFFF
Ne 35 "/RD"
Po 16.51 -7.62
$EndPAD
$PAD
Sh "25" O 1.5748 2.286 0 0 0
Dr 0.8128 0 0
At STD N 00E0FFFF
Ne 0 ""
Po 13.97 -7.62
$EndPAD
$PAD
Sh "26" O 1.5748 2.286 0 0 0
Dr 0.8128 0 0
At STD N 00E0FFFF
Ne 31 "/M1"
Po 11.43 -7.62
$EndPAD
$PAD
Sh "27" O 1.5748 2.286 0 0 0
Dr 0.8128 0 0
At STD N 00E0FFFF
Ne 44 "VCC"
Po 8.89 -7.62
$EndPAD
$PAD
Sh "28" O 1.5748 2.286 0 0 0
Dr 0.8128 0 0
At STD N 00E0FFFF
Ne 37 "/RESET"
Po 6.35 -7.62
$EndPAD
$PAD
Sh "29" O 1.5748 2.286 0 0 0
Dr 0.8128 0 0
At STD N 00E0FFFF
Ne 40 "/XWR"
Po 3.81 -7.62
$EndPAD
$PAD
Sh "30" O 1.5748 2.286 0 0 0
Dr 0.8128 0 0
At STD N 00E0FFFF
Ne 1 "/A0"
Po 1.27 -7.62
$EndPAD
$PAD
Sh "31" O 1.5748 2.286 0 0 0
Dr 0.8128 0 0
At STD N 00E0FFFF
Ne 44 "VCC"
Po -1.27 -7.62
$EndPAD
$PAD
Sh "32" O 1.5748 2.286 0 0 0
Dr 0.8128 0 0
At STD N 00E0FFFF
Ne 2 "/A1"
Po -3.81 -7.62
$EndPAD
$PAD
Sh "33" O 1.5748 2.286 0 0 0
Dr 0.8128 0 0
At STD N 00E0FFFF
Ne 3 "/A2"
Po -6.35 -7.62
$EndPAD
$PAD
Sh "34" O 1.5748 2.286 0 0 0
Dr 0.8128 0 0
At STD N 00E0FFFF
Ne 15 "/D7"
Po -8.89 -7.62
$EndPAD
$PAD
Sh "35" O 1.5748 2.286 0 0 0
Dr 0.8128 0 0
At STD N 00E0FFFF
Ne 14 "/D6"
Po -11.43 -7.62
$EndPAD
$PAD
Sh "36" O 1.5748 2.286 0 0 0
Dr 0.8128 0 0
At STD N 00E0FFFF
Ne 13 "/D5"
Po -13.97 -7.62
$EndPAD
$PAD
Sh "37" O 1.5748 2.286 0 0 0
Dr 0.8128 0 0
At STD N 00E0FFFF
Ne 12 "/D4"
Po -16.51 -7.62
$EndPAD
$PAD
Sh "38" O 1.5748 2.286 0 0 0
Dr 0.8128 0 0
At STD N 00E0FFFF
Ne 11 "/D3"
Po -19.05 -7.62
$EndPAD
$PAD
Sh "39" O 1.5748 2.286 0 0 0
Dr 0.8128 0 0
At STD N 00E0FFFF
Ne 10 "/D2"
Po -21.59 -7.62
$EndPAD
$PAD
Sh "40" O 1.5748 2.286 0 0 0
Dr 0.8128 0 0
At STD N 00E0FFFF
Ne 9 "/D1"
Po -24.13 -7.62
$EndPAD
$SHAPE3D
Na "dil\\dil_40-w600.wrl"
Sc 1 1 1
Of 0 0 0
Ro 0 0 0
$EndSHAPE3D
$EndMODULE DIP-40__600_ELL
$MODULE HEADER-50
Po 0 0 0 15 5A6AE253 00000000 ~~
Li HEADER-50
Cd Connecteur HE10 50 contacts droit
Kw CONN HE10
Sc 0
AR 
Op 0 0 0
T0 -8.128 -5.842 1.524 1.016 0 0.254 N V 21 N "P?"
T1 11.43 -6.096 1.524 1.016 0 0.254 N V 21 N "50 PIN"
DS -32.004 1.27 -33.274 0.508 0.3048 21
DS -33.274 0.508 -33.274 2.032 0.3048 21
DS -33.274 2.032 -32.004 1.27 0.3048 21
DS -1.778 4.318 1.778 4.318 0.3048 21
DS -1.778 4.318 -1.778 3.556 0.3048 21
DS -1.778 3.556 -34.29 3.556 0.3048 21
DS -34.29 3.556 -34.29 -3.556 0.3048 21
DS -34.29 -3.556 34.29 -3.556 0.3048 21
DS 34.29 -3.556 34.29 3.556 0.3048 21
DS 34.29 3.556 1.778 3.556 0.3048 21
DS 1.778 3.556 1.778 4.318 0.3048 21
$PAD
Sh "1" R 1.524 1.524 0 0 0
Dr 0.9144 0 0
At STD N 00E0FFFF
Ne 0 ""
Po -30.48 1.27
$EndPAD
$PAD
Sh "2" C 1.524 1.524 0 0 0
Dr 0.9144 0 0
At STD N 00E0FFFF
Ne 0 ""
Po -30.48 -1.27
$EndPAD
$PAD
Sh "3" C 1.524 1.524 0 0 0
Dr 0.9144 0 0
At STD N 00E0FFFF
Ne 0 ""
Po -27.94 1.27
$EndPAD
$PAD
Sh "4" C 1.524 1.524 0 0 0
Dr 0.9144 0 0
At STD N 00E0FFFF
Ne 0 ""
Po -27.94 -1.27
$EndPAD
$PAD
Sh "5" C 1.524 1.524 0 0 0
Dr 0.9144 0 0
At STD N 00E0FFFF
Ne 0 ""
Po -25.4 1.27
$EndPAD
$PAD
Sh "6" C 1.524 1.524 0 0 0
Dr 0.9144 0 0
At STD N 00E0FFFF
Ne 0 ""
Po -25.4 -1.27
$EndPAD
$PAD
Sh "7" C 1.524 1.524 0 0 0
Dr 0.9144 0 0
At STD N 00E0FFFF
Ne 0 ""
Po -22.86 1.27
$EndPAD
$PAD
Sh "8" C 1.524 1.524 0 0 0
Dr 0.9144 0 0
At STD N 00E0FFFF
Ne 0 ""
Po -22.86 -1.27
$EndPAD
$PAD
Sh "9" C 1.524 1.524 0 0 0
Dr 0.9144 0 0
At STD N 00E0FFFF
Ne 0 ""
Po -20.32 1.27
$EndPAD
$PAD
Sh "10" C 1.524 1.524 0 0 0
Dr 0.9144 0 0
At STD N 00E0FFFF
Ne 0 ""
Po -20.32 -1.27
$EndPAD
$PAD
Sh "11" C 1.524 1.524 0 0 0
Dr 0.9144 0 0
At STD N 00E0FFFF
Ne 0 ""
Po -17.78 1.27
$EndPAD
$PAD
Sh "12" C 1.524 1.524 0 0 0
Dr 0.9144 0 0
At STD N 00E0FFFF
Ne 0 ""
Po -17.78 -1.27
$EndPAD
$PAD
Sh "13" C 1.524 1.524 0 0 0
Dr 0.9144 0 0
At STD N 00E0FFFF
Ne 0 ""
Po -15.24 1.27
$EndPAD
$PAD
Sh "14" C 1.524 1.524 0 0 0
Dr 0.9144 0 0
At STD N 00E0FFFF
Ne 0 ""
Po -15.24 -1.27
$EndPAD
$PAD
Sh "15" C 1.524 1.524 0 0 0
Dr 0.9144 0 0
At STD N 00E0FFFF
Ne 0 ""
Po -12.7 1.27
$EndPAD
$PAD
Sh "16" C 1.524 1.524 0 0 0
Dr 0.9144 0 0
At STD N 00E0FFFF
Ne 0 ""
Po -12.7 -1.27
$EndPAD
$PAD
Sh "17" C 1.524 1.524 0 0 0
Dr 0.9144 0 0
At STD N 00E0FFFF
Ne 0 ""
Po -10.16 1.27
$EndPAD
$PAD
Sh "18" C 1.524 1.524 0 0 0
Dr 0.9144 0 0
At STD N 00E0FFFF
Ne 0 ""
Po -10.16 -1.27
$EndPAD
$PAD
Sh "19" C 1.524 1.524 0 0 0
Dr 0.9144 0 0
At STD N 00E0FFFF
Ne 0 ""
Po -7.62 1.27
$EndPAD
$PAD
Sh "20" C 1.524 1.524 0 0 0
Dr 0.9144 0 0
At STD N 00E0FFFF
Ne 0 ""
Po -7.62 -1.27
$EndPAD
$PAD
Sh "21" C 1.524 1.524 0 0 0
Dr 0.9144 0 0
At STD N 00E0FFFF
Ne 0 ""
Po -5.08 1.27
$EndPAD
$PAD
Sh "22" C 1.524 1.524 0 0 0
Dr 0.9144 0 0
At STD N 00E0FFFF
Ne 0 ""
Po -5.08 -1.27
$EndPAD
$PAD
Sh "23" C 1.524 1.524 0 0 0
Dr 0.9144 0 0
At STD N 00E0FFFF
Ne 0 ""
Po -2.54 1.27
$EndPAD
$PAD
Sh "24" C 1.524 1.524 0 0 0
Dr 0.9144 0 0
At STD N 00E0FFFF
Ne 0 ""
Po -2.54 -1.27
$EndPAD
$PAD
Sh "25" C 1.524 1.524 0 0 0
Dr 0.9144 0 0
At STD N 00E0FFFF
Ne 0 ""
Po 0 1.27
$EndPAD
$PAD
Sh "26" C 1.524 1.524 0 0 0
Dr 0.9144 0 0
At STD N 00E0FFFF
Ne 0 ""
Po 0 -1.27
$EndPAD
$PAD
Sh "27" C 1.524 1.524 0 0 0
Dr 0.9144 0 0
At STD N 00E0FFFF
Ne 0 ""
Po 2.54 1.27
$EndPAD
$PAD
Sh "28" C 1.524 1.524 0 0 0
Dr 0.9144 0 0
At STD N 00E0FFFF
Ne 0 ""
Po 2.54 -1.27
$EndPAD
$PAD
Sh "29" C 1.524 1.524 0 0 0
Dr 0.9144 0 0
At STD N 00E0FFFF
Ne 0 ""
Po 5.08 1.27
$EndPAD
$PAD
Sh "30" C 1.524 1.524 0 0 0
Dr 0.9144 0 0
At STD N 00E0FFFF
Ne 0 ""
Po 5.08 -1.27
$EndPAD
$PAD
Sh "31" C 1.524 1.524 0 0 0
Dr 0.9144 0 0
At STD N 00E0FFFF
Ne 0 ""
Po 7.62 1.27
$EndPAD
$PAD
Sh "32" C 1.524 1.524 0 0 0
Dr 0.9144 0 0
At STD N 00E0FFFF
Ne 0 ""
Po 7.62 -1.27
$EndPAD
$PAD
Sh "33" C 1.524 1.524 0 0 0
Dr 0.9144 0 0
At STD N 00E0FFFF
Ne 0 ""
Po 10.16 1.27
$EndPAD
$PAD
Sh "34" C 1.524 1.524 0 0 0
Dr 0.9144 0 0
At STD N 00E0FFFF
Ne 0 ""
Po 10.16 -1.27
$EndPAD
$PAD
Sh "35" C 1.524 1.524 0 0 0
Dr 0.9144 0 0
At STD N 00E0FFFF
Ne 0 ""
Po 12.7 1.27
$EndPAD
$PAD
Sh "36" C 1.524 1.524 0 0 0
Dr 0.9144 0 0
At STD N 00E0FFFF
Ne 0 ""
Po 12.7 -1.27
$EndPAD
$PAD
Sh "37" C 1.524 1.524 0 0 0
Dr 0.9144 0 0
At STD N 00E0FFFF
Ne 0 ""
Po 15.24 1.27
$EndPAD
$PAD
Sh "38" C 1.524 1.524 0 0 0
Dr 0.9144 0 0
At STD N 00E0FFFF
Ne 0 ""
Po 15.24 -1.27
$EndPAD
$PAD
Sh "39" C 1.524 1.524 0 0 0
Dr 0.9144 0 0
At STD N 00E0FFFF
Ne 0 ""
Po 17.78 1.27
$EndPAD
$PAD
Sh "40" C 1.524 1.524 0 0 0
Dr 0.9144 0 0
At STD N 00E0FFFF
Ne 0 ""
Po 17.78 -1.27
$EndPAD
$PAD
Sh "41" C 1.524 1.524 0 0 0
Dr 0.9144 0 0
At STD N 00E0FFFF
Ne 0 ""
Po 20.32 1.27
$EndPAD
$PAD
Sh "42" C 1.524 1.524 0 0 0
Dr 0.9144 0 0
At STD N 00E0FFFF
Ne 0 ""
Po 20.32 -1.27
$EndPAD
$PAD
Sh "43" C 1.524 1.524 0 0 0
Dr 0.9144 0 0
At STD N 00E0FFFF
Ne 0 ""
Po 22.86 1.27
$EndPAD
$PAD
Sh "44" C 1.524 1.524 0 0 0
Dr 0.9144 0 0
At STD N 00E0FFFF
Ne 0 ""
Po 22.86 -1.27
$EndPAD
$PAD
Sh "45" C 1.524 1.524 0 0 0
Dr 0.9144 0 0
At STD N 00E0FFFF
Ne 0 ""
Po 25.4 1.27
$EndPAD
$PAD
Sh "46" C 1.524 1.524 0 0 0
Dr 0.9144 0 0
At STD N 00E0FFFF
Ne 0 ""
Po 25.4 -1.27
$EndPAD
$PAD
Sh "47" C 1.524 1.524 0 0 0
Dr 0.9144 0 0
At STD N 00E0FFFF
Ne 0 ""
Po 27.94 1.27
$EndPAD
$PAD
Sh "48" C 1.524 1.524 0 0 0
Dr 0.9144 0 0
At STD N 00E0FFFF
Ne 0 ""
Po 27.94 -1.27
$EndPAD
$PAD
Sh "49" C 1.524 1.524 0 0 0
Dr 0.9144 0 0
At STD N 00E0FFFF
Ne 0 ""
Po 30.48 1.27
$EndPAD
$PAD
Sh "50" C 1.524 1.524 0 0 0
Dr 0.9144 0 0
At STD N 00E0FFFF
Ne 0 ""
Po 30.48 -1.27
$EndPAD
$SHAPE3D
Na "/home/forthnutter/test.wrl"
Sc 0.394 0.394 0.394
Of 1.2 0.05 0
Ro 0 0 90
$EndSHAPE3D
$EndMODULE HEADER-50
$MODULE PIN_ARRAY_20X2
Po 204.343 106.68 0 15 5031D84E 00000000 ~~
Li PIN_ARRAY_20X2
Cd Double rangee de contacts 2 x 12 pins
Kw CONN
Sc 0
AR /5A130182
Op 0 0 0
T0 0 -3.81 1.016 1.016 0 0.27432 N V 21 N "P2"
T1 0 3.81 1.016 1.016 0 0.2032 N V 21 N "MB40PIN"
DS 25.4 2.54 -25.4 2.54 0.3048 21
DS 25.4 -2.54 -25.4 -2.54 0.3048 21
DS 25.4 -2.54 25.4 2.54 0.3048 21
DS -25.4 -2.54 -25.4 2.54 0.3048 21
$PAD
Sh "1" R 1.524 1.524 0 0 0
Dr 1.016 0 0
At STD N 00E0FFFF
Ne 8 "/D0"
Po -24.13 1.27
$EndPAD
$PAD
Sh "2" C 1.524 1.524 0 0 0
Dr 1.016 0 0
At STD N 00E0FFFF
Ne 41 "GND"
Po -24.13 -1.27
$EndPAD
$PAD
Sh "11" C 1.524 1.524 0 0 0
Dr 1.016 0 0
At STD N 00E0FFFF
Ne 13 "/D5"
Po -11.43 1.27
$EndPAD
$PAD
Sh "4" C 1.524 1.524 0 0 0
Dr 1.016 0 0
At STD N 00E0FFFF
Ne 41 "GND"
Po -21.59 -1.27
$EndPAD
$PAD
Sh "13" C 1.524 1.524 0 0 0
Dr 1.016 0 0
At STD N 00E0FFFF
Ne 14 "/D6"
Po -8.89 1.27
$EndPAD
$PAD
Sh "6" C 1.524 1.524 0 0 0
Dr 1.016 0 0
At STD N 00E0FFFF
Ne 41 "GND"
Po -19.05 -1.27
$EndPAD
$PAD
Sh "15" C 1.524 1.524 0 0 0
Dr 1.016 0 0
At STD N 00E0FFFF
Ne 15 "/D7"
Po -6.35 1.27
$EndPAD
$PAD
Sh "8" C 1.524 1.524 0 0 0
Dr 1.016 0 0
At STD N 00E0FFFF
Ne 41 "GND"
Po -16.51 -1.27
$EndPAD
$PAD
Sh "17" C 1.524 1.524 0 0 0
Dr 1.016 0 0
At STD N 00E0FFFF
Ne 1 "/A0"
Po -3.81 1.27
$EndPAD
$PAD
Sh "10" C 1.524 1.524 0 0 0
Dr 1.016 0 0
At STD N 00E0FFFF
Ne 41 "GND"
Po -13.97 -1.27
$EndPAD
$PAD
Sh "19" C 1.524 1.524 0 0 0
Dr 1.016 0 0
At STD N 00E0FFFF
Ne 2 "/A1"
Po -1.27 1.27
$EndPAD
$PAD
Sh "12" C 1.524 1.524 0 0 0
Dr 1.016 0 0
At STD N 00E0FFFF
Ne 41 "GND"
Po -11.43 -1.27
$EndPAD
$PAD
Sh "21" C 1.524 1.524 0 0 0
Dr 1.016 0 0
At STD N 00E0FFFF
Ne 3 "/A2"
Po 1.27 1.27
$EndPAD
$PAD
Sh "14" C 1.524 1.524 0 0 0
Dr 1.016 0 0
At STD N 00E0FFFF
Ne 41 "GND"
Po -8.89 -1.27
$EndPAD
$PAD
Sh "23" C 1.524 1.524 0 0 0
Dr 1.016 0 0
At STD N 00E0FFFF
Ne 33 "/PORT40H"
Po 3.81 1.27
$EndPAD
$PAD
Sh "16" C 1.524 1.524 0 0 0
Dr 1.016 0 0
At STD N 00E0FFFF
Ne 41 "GND"
Po -6.35 -1.27
$EndPAD
$PAD
Sh "25" C 1.524 1.524 0 0 0
Dr 1.016 0 0
At STD N 00E0FFFF
Ne 40 "/XWR"
Po 6.35 1.27
$EndPAD
$PAD
Sh "18" C 1.524 1.524 0 0 0
Dr 1.016 0 0
At STD N 00E0FFFF
Ne 41 "GND"
Po -3.81 -1.27
$EndPAD
$PAD
Sh "27" C 1.524 1.524 0 0 0
Dr 1.016 0 0
At STD N 00E0FFFF
Ne 35 "/RD"
Po 8.89 1.27
$EndPAD
$PAD
Sh "20" C 1.524 1.524 0 0 0
Dr 1.016 0 0
At STD N 00E0FFFF
Ne 41 "GND"
Po -1.27 -1.27
$EndPAD
$PAD
Sh "29" C 1.524 1.524 0 0 0
Dr 1.016 0 0
At STD N 00E0FFFF
Ne 44 "VCC"
Po 11.43 1.27
$EndPAD
$PAD
Sh "22" C 1.524 1.524 0 0 0
Dr 1.016 0 0
At STD N 00E0FFFF
Ne 41 "GND"
Po 1.27 -1.27
$EndPAD
$PAD
Sh "31" C 1.524 1.524 0 0 0
Dr 1.016 0 0
At STD N 00E0FFFF
Ne 31 "/M1"
Po 13.97 1.27
$EndPAD
$PAD
Sh "24" C 1.524 1.524 0 0 0
Dr 1.016 0 0
At STD N 00E0FFFF
Ne 41 "GND"
Po 3.81 -1.27
$EndPAD
$PAD
Sh "26" C 1.524 1.524 0 0 0
Dr 1.016 0 0
At STD N 00E0FFFF
Ne 41 "GND"
Po 6.35 -1.27
$EndPAD
$PAD
Sh "33" C 1.524 1.524 0 0 0
Dr 1.016 0 0
At STD N 00E0FFFF
Ne 30 "/IORQ"
Po 16.51 1.27
$EndPAD
$PAD
Sh "28" C 1.524 1.524 0 0 0
Dr 1.016 0 0
At STD N 00E0FFFF
Ne 41 "GND"
Po 8.89 -1.27
$EndPAD
$PAD
Sh "32" C 1.524 1.524 0 0 0
Dr 1.016 0 0
At STD N 00E0FFFF
Ne 41 "GND"
Po 13.97 -1.27
$EndPAD
$PAD
Sh "34" C 1.524 1.524 0 0 0
Dr 1.016 0 0
At STD N 00E0FFFF
Ne 41 "GND"
Po 16.51 -1.27
$EndPAD
$PAD
Sh "36" C 1.524 1.524 0 0 0
Dr 1.016 0 0
At STD N 00E0FFFF
Ne 29 "/INT"
Po 19.05 -1.27
$EndPAD
$PAD
Sh "38" C 1.524 1.524 0 0 0
Dr 1.016 0 0
At STD N 00E0FFFF
Ne 34 "/PORT60"
Po 21.59 -1.27
$EndPAD
$PAD
Sh "35" C 1.524 1.524 0 0 0
Dr 1.016 0 0
At STD N 00E0FFFF
Ne 26 "/HALT"
Po 19.05 1.27
$EndPAD
$PAD
Sh "37" C 1.524 1.524 0 0 0
Dr 1.016 0 0
At STD N 00E0FFFF
Ne 25 "/FSIDE"
Po 21.59 1.27
$EndPAD
$PAD
Sh "3" C 1.524 1.524 0 0 0
Dr 1.016 0 0
At STD N 00E0FFFF
Ne 9 "/D1"
Po -21.59 1.27
$EndPAD
$PAD
Sh "5" C 1.524 1.524 0 0 0
Dr 1.016 0 0
At STD N 00E0FFFF
Ne 10 "/D2"
Po -19.05 1.27
$EndPAD
$PAD
Sh "7" C 1.524 1.524 0 0 0
Dr 1.016 0 0
At STD N 00E0FFFF
Ne 11 "/D3"
Po -16.51 1.27
$EndPAD
$PAD
Sh "9" C 1.524 1.524 0 0 0
Dr 1.016 0 0
At STD N 00E0FFFF
Ne 12 "/D4"
Po -13.97 1.27
$EndPAD
$PAD
Sh "39" C 1.524 1.524 0 0 0
Dr 1.016 0 0
At STD N 00E0FFFF
Ne 37 "/RESET"
Po 24.13 1.27
$EndPAD
$PAD
Sh "40" C 1.524 1.524 0 0 0
Dr 1.016 0 0
At STD N 00E0FFFF
Ne 28 "/IEO"
Po 24.13 -1.27
$EndPAD
$PAD
Sh "30" C 1.524 1.524 0 0 0
Dr 1.016 0 0
At STD N 00E0FFFF
Ne 41 "GND"
Po 11.43 -1.27
$EndPAD
$SHAPE3D
Na "pin_array/pins_array_20x2.wrl"
Sc 1 1 1
Of 0 0 0
Ro 0 0 0
$EndSHAPE3D
$EndMODULE PIN_ARRAY_20X2
$MODULE PIN_ARRAY_2X1
Po 115.824 107.95 0 15 4565C520 00000000 ~~
Li PIN_ARRAY_2X1
Cd Connecteurs 2 pins
Kw CONN DEV
Sc 0
AR /5A39122D
Op 0 0 0
T0 0 -1.905 0.762 0.762 0 0.1524 N V 21 N "JP1"
T1 0 -1.905 0.762 0.762 0 0.1524 N I 21 N "JUMPER"
DS -2.54 1.27 -2.54 -1.27 0.1524 21
DS -2.54 -1.27 2.54 -1.27 0.1524 21
DS 2.54 -1.27 2.54 1.27 0.1524 21
DS 2.54 1.27 -2.54 1.27 0.1524 21
$PAD
Sh "1" R 1.524 1.524 0 0 0
Dr 1.016 0 0
At STD N 00E0FFFF
Ne 42 "N-000001"
Po -1.27 0
$EndPAD
$PAD
Sh "2" C 1.524 1.524 0 0 0
Dr 1.016 0 0
At STD N 00E0FFFF
Ne 44 "VCC"
Po 1.27 0
$EndPAD
$SHAPE3D
Na "pin_array/pins_array_2x1.wrl"
Sc 1 1 1
Of 0 0 0
Ro 0 0 0
$EndSHAPE3D
$EndMODULE PIN_ARRAY_2X1
$MODULE SIL-10
Po 0 0 0 15 00200000 00000000 ~~
Li SIL-10
Cd Connecteur 10 pins
Kw CONN DEV
Sc 0
AR 
Op 0 0 0
T0 -6.35 -2.54 1.72974 1.08712 0 0.3048 N V 21 N "SIL-10"
T1 6.35 -2.54 1.524 1.016 0 0.3048 N V 21 N "Val**"
DS -12.7 1.27 -12.7 -1.27 0.3048 21
DS -12.7 -1.27 12.7 -1.27 0.3048 21
DS 12.7 -1.27 12.7 1.27 0.3048 21
DS 12.7 1.27 -12.7 1.27 0.3048 21
DS -10.16 1.27 -10.16 -1.27 0.3048 21
$PAD
Sh "1" R 1.397 1.397 0 0 0
Dr 0.8128 0 0
At STD N 00E0FFFF
Ne 0 ""
Po -11.43 0
$EndPAD
$PAD
Sh "2" C 1.397 1.397 0 0 0
Dr 0.8128 0 0
At STD N 00E0FFFF
Ne 0 ""
Po -8.89 0
$EndPAD
$PAD
Sh "3" C 1.397 1.397 0 0 0
Dr 0.8128 0 0
At STD N 00E0FFFF
Ne 0 ""
Po -6.35 0
$EndPAD
$PAD
Sh "4" C 1.397 1.397 0 0 0
Dr 0.8128 0 0
At STD N 00E0FFFF
Ne 0 ""
Po -3.81 0
$EndPAD
$PAD
Sh "5" C 1.397 1.397 0 0 0
Dr 0.8128 0 0
At STD N 00E0FFFF
Ne 0 ""
Po -1.27 0
$EndPAD
$PAD
Sh "6" C 1.397 1.397 0 0 0
Dr 0.8128 0 0
At STD N 00E0FFFF
Ne 0 ""
Po 1.27 0
$EndPAD
$PAD
Sh "7" C 1.397 1.397 0 0 0
Dr 0.8128 0 0
At STD N 00E0FFFF
Ne 0 ""
Po 3.81 0
$EndPAD
$PAD
Sh "8" C 1.397 1.397 0 0 0
Dr 0.8128 0 0
At STD N 00E0FFFF
Ne 0 ""
Po 6.35 0
$EndPAD
$PAD
Sh "9" C 1.397 1.397 0 0 0
Dr 0.8128 0 0
At STD N 00E0FFFF
Ne 0 ""
Po 8.89 0
$EndPAD
$PAD
Sh "10" C 1.397 1.397 0 0 0
Dr 0.8128 0 0
At STD N 00E0FFFF
Ne 0 ""
Po 11.43 0
$EndPAD
$SHAPE3D
Na "Resistor_THT.3dshapes/R_Array_SIP10.wrl"
Sc 0.393 0.393 0.393
Of -0.449 0.064 0
Ro 270 0 0
$EndSHAPE3D
$EndMODULE SIL-10
$EndLIBRARY
