EESchema Schematic File Version 2
LIBS:Microbee-SCSI
LIBS:power
LIBS:device
LIBS:transistors
LIBS:conn
LIBS:linear
LIBS:regul
LIBS:74xx
LIBS:cmos4000
LIBS:adc-dac
LIBS:memory
LIBS:xilinx
LIBS:special
LIBS:microcontrollers
LIBS:dsp
LIBS:microchip
LIBS:analog_switches
LIBS:motorola
LIBS:texas
LIBS:intel
LIBS:audio
LIBS:interface
LIBS:digital-audio
LIBS:philips
LIBS:display
LIBS:cypress
LIBS:siliconi
LIBS:opto
LIBS:atmel
LIBS:contrib
LIBS:valves
LIBS:NCR
LIBS:Mirobee-SCSI-Rev-A-cache
EELAYER 27 0
EELAYER END
$Descr A3 16535 11693
encoding utf-8
Sheet 1 1
Title "Microbee SCSI Interface"
Date "26 jan 2018"
Rev "A"
Comp "Forthnutter"
Comment1 ""
Comment2 ""
Comment3 ""
Comment4 ""
$EndDescr
$Comp
L CONN_25X2 P3
U 1 1 5A0FE821
P 11500 3300
F 0 "P3" H 11500 4600 60  0000 C CNN
F 1 "SCSI50PIN" V 11500 3300 50  0000 C CNN
F 2 "" H 11500 3300 60  0000 C CNN
F 3 "" H 11500 3300 60  0000 C CNN
	1    11500 3300
	-1   0    0    -1  
$EndComp
$Comp
L CONN_20X2 P1
U 1 1 5A0FE83E
P 3800 3350
F 0 "P1" H 3800 4400 60  0000 C CNN
F 1 "MB40PIN" V 3800 3350 50  0000 C CNN
F 2 "" H 3800 3350 60  0000 C CNN
F 3 "" H 3800 3350 60  0000 C CNN
	1    3800 3350
	-1   0    0    -1  
$EndComp
$Comp
L 5380 U1
U 1 1 5A101344
P 8050 3600
F 0 "U1" H 8050 3700 70  0000 C CNN
F 1 "5380" H 8050 3500 70  0000 C CNN
F 2 "~" H 8050 3600 60  0000 C CNN
F 3 "~" H 8050 3600 60  0000 C CNN
	1    8050 3600
	-1   0    0    -1  
$EndComp
$Comp
L VDD #PWR01
U 1 1 5A1014C0
P 5000 2100
F 0 "#PWR01" H 5000 2200 30  0001 C CNN
F 1 "VDD" H 5000 2210 30  0000 C CNN
F 2 "" H 5000 2100 60  0000 C CNN
F 3 "" H 5000 2100 60  0000 C CNN
	1    5000 2100
	-1   0    0    -1  
$EndComp
$Comp
L VDD #PWR02
U 1 1 5A1014CF
P 6600 2100
F 0 "#PWR02" H 6600 2200 30  0001 C CNN
F 1 "VDD" H 6600 2210 30  0000 C CNN
F 2 "" H 6600 2100 60  0000 C CNN
F 3 "" H 6600 2100 60  0000 C CNN
	1    6600 2100
	-1   0    0    -1  
$EndComp
$Comp
L 74LS32 U2
U 3 1 5A1014FA
P 5750 8200
F 0 "U2" H 5750 8250 60  0000 C CNN
F 1 "74LS32" H 5750 8150 60  0000 C CNN
F 2 "~" H 5750 8200 60  0000 C CNN
F 3 "~" H 5750 8200 60  0000 C CNN
	3    5750 8200
	1    0    0    1   
$EndComp
$Comp
L GND #PWR03
U 1 1 5A12DD77
P 2750 9800
F 0 "#PWR03" H 2750 9800 30  0001 C CNN
F 1 "GND" H 2750 9730 30  0001 C CNN
F 2 "" H 2750 9800 60  0000 C CNN
F 3 "" H 2750 9800 60  0000 C CNN
	1    2750 9800
	1    0    0    -1  
$EndComp
$Comp
L GND #PWR04
U 1 1 5A12DD89
P 10950 8200
F 0 "#PWR04" H 10950 8200 30  0001 C CNN
F 1 "GND" H 10950 8130 30  0001 C CNN
F 2 "" H 10950 8200 60  0000 C CNN
F 3 "" H 10950 8200 60  0000 C CNN
	1    10950 8200
	1    0    0    -1  
$EndComp
$Comp
L GND #PWR05
U 1 1 5A12DD98
P 12350 8150
F 0 "#PWR05" H 12350 8150 30  0001 C CNN
F 1 "GND" H 12350 8080 30  0001 C CNN
F 2 "" H 12350 8150 60  0000 C CNN
F 3 "" H 12350 8150 60  0000 C CNN
	1    12350 8150
	1    0    0    -1  
$EndComp
$Comp
L GND #PWR06
U 1 1 5A12DDA7
P 6900 5500
F 0 "#PWR06" H 6900 5500 30  0001 C CNN
F 1 "GND" H 6900 5430 30  0001 C CNN
F 2 "" H 6900 5500 60  0000 C CNN
F 3 "" H 6900 5500 60  0000 C CNN
	1    6900 5500
	1    0    0    -1  
$EndComp
Text Label 4350 2400 0    60   ~ 0
D0
Text Label 4350 2500 0    60   ~ 0
D1
Text Label 4350 2600 0    60   ~ 0
D2
Text Label 4350 2700 0    60   ~ 0
D3
Text Label 4350 2800 0    60   ~ 0
D4
Text Label 4350 2900 0    60   ~ 0
D5
Text Label 4350 3000 0    60   ~ 0
D6
Text Label 4350 3100 0    60   ~ 0
D7
Text Label 4350 3200 0    60   ~ 0
A0
Text Label 4350 3300 0    60   ~ 0
A1
Text Label 4350 3400 0    60   ~ 0
A2
Text Label 4350 3600 0    60   ~ 0
XWR
Text Label 4350 3700 0    60   ~ 0
RD
Text Label 4350 3800 0    60   ~ 0
VDD
Text Label 4350 3900 0    60   ~ 0
M1
Text Label 3050 8300 0    60   ~ 0
PORT60
$Comp
L VDD #PWR07
U 1 1 5A12E224
P 9250 4500
F 0 "#PWR07" H 9250 4600 30  0001 C CNN
F 1 "VDD" H 9250 4610 30  0000 C CNN
F 2 "" H 9250 4500 60  0000 C CNN
F 3 "" H 9250 4500 60  0000 C CNN
	1    9250 4500
	1    0    0    -1  
$EndComp
$Comp
L CONN_20X2 P2
U 1 1 5A130182
P 3800 6300
F 0 "P2" H 3800 7350 60  0000 C CNN
F 1 "MB40PIN" V 3800 6300 50  0000 C CNN
F 2 "" H 3800 6300 60  0000 C CNN
F 3 "" H 3800 6300 60  0000 C CNN
	1    3800 6300
	-1   0    0    -1  
$EndComp
$Comp
L CONN_25X2 P4
U 1 1 5A130188
P 11500 6400
F 0 "P4" H 11500 7700 60  0000 C CNN
F 1 "SCSI50PIN" V 11500 6400 50  0000 C CNN
F 2 "" H 11500 6400 60  0000 C CNN
F 3 "" H 11500 6400 60  0000 C CNN
	1    11500 6400
	-1   0    0    -1  
$EndComp
Text Label 4250 4300 0    60   ~ 0
RESET
$Comp
L RR9 RR1
U 1 1 5A23E5A4
P 8000 5950
F 0 "RR1" H 8050 6550 70  0000 C CNN
F 1 "220R" V 8030 5950 70  0000 C CNN
F 2 "~" H 8000 5950 60  0000 C CNN
F 3 "~" H 8000 5950 60  0000 C CNN
	1    8000 5950
	-1   0    0    -1  
$EndComp
$Comp
L RR9 RR3
U 1 1 5A23E5B3
P 8000 8300
F 0 "RR3" H 8050 8900 70  0000 C CNN
F 1 "220R" V 8030 8300 70  0000 C CNN
F 2 "~" H 8000 8300 60  0000 C CNN
F 3 "~" H 8000 8300 60  0000 C CNN
	1    8000 8300
	-1   0    0    -1  
$EndComp
$Comp
L RR9 RR2
U 1 1 5A23E5C2
P 8000 6950
F 0 "RR2" H 8050 7550 70  0000 C CNN
F 1 "330R" V 8030 6950 70  0000 C CNN
F 2 "~" H 8000 6950 60  0000 C CNN
F 3 "~" H 8000 6950 60  0000 C CNN
	1    8000 6950
	-1   0    0    1   
$EndComp
$Comp
L RR9 RR4
U 1 1 5A23E5D1
P 8000 9300
F 0 "RR4" H 8050 9900 70  0000 C CNN
F 1 "330R" V 8030 9300 70  0000 C CNN
F 2 "~" H 8000 9300 60  0000 C CNN
F 3 "~" H 8000 9300 60  0000 C CNN
	1    8000 9300
	-1   0    0    1   
$EndComp
Wire Wire Line
	4200 2400 7100 2400
Wire Wire Line
	4200 2500 7100 2500
Wire Wire Line
	4200 2600 7100 2600
Wire Wire Line
	4200 2700 7100 2700
Wire Wire Line
	4200 2800 7100 2800
Wire Wire Line
	4200 2900 7100 2900
Wire Wire Line
	4200 3000 7100 3000
Wire Wire Line
	4200 3100 7100 3100
Wire Wire Line
	4200 3200 6150 3200
Wire Wire Line
	6150 3200 6150 3600
Wire Wire Line
	6150 3600 7100 3600
Wire Wire Line
	4200 3300 6250 3300
Wire Wire Line
	6250 3300 6250 3700
Wire Wire Line
	6250 3700 7100 3700
Wire Wire Line
	4200 3400 6200 3400
Wire Wire Line
	6200 3400 6200 3800
Wire Wire Line
	6200 3800 7100 3800
Wire Wire Line
	4200 3600 6100 3600
Wire Wire Line
	6100 3600 6100 3500
Wire Wire Line
	6100 3500 7100 3500
Wire Wire Line
	5300 3900 6300 3900
Wire Wire Line
	6300 3900 6300 3400
Wire Wire Line
	6300 3400 7100 3400
Wire Wire Line
	4200 3800 5350 3800
Wire Wire Line
	5000 2100 5000 3800
Wire Wire Line
	7100 4300 6600 4300
Wire Wire Line
	6600 4300 6600 2100
Wire Wire Line
	6550 3300 6550 8200
Wire Wire Line
	6550 8200 6350 8200
Wire Wire Line
	5000 8100 5150 8100
Wire Wire Line
	5000 3900 5000 8100
Wire Wire Line
	5000 3900 4200 3900
Wire Wire Line
	2900 8300 5150 8300
Wire Wire Line
	2900 4200 2900 8300
Wire Wire Line
	2900 4200 3400 4200
Wire Wire Line
	7100 4600 5000 4600
Wire Wire Line
	4200 4300 5550 4300
Wire Wire Line
	5550 4000 5550 7250
Wire Wire Line
	5550 4000 7100 4000
Wire Wire Line
	7100 4800 6900 4800
Wire Wire Line
	6900 4800 6900 5500
Wire Wire Line
	2750 2400 2750 9800
Wire Wire Line
	2750 2400 3400 2400
Wire Wire Line
	3400 2500 2750 2500
Connection ~ 2750 2500
Wire Wire Line
	3400 2600 2750 2600
Connection ~ 2750 2600
Wire Wire Line
	3400 2700 2750 2700
Connection ~ 2750 2700
Wire Wire Line
	3400 2800 2750 2800
Connection ~ 2750 2800
Wire Wire Line
	3400 2900 2750 2900
Connection ~ 2750 2900
Wire Wire Line
	3400 3000 2750 3000
Connection ~ 2750 3000
Wire Wire Line
	3400 3100 2750 3100
Connection ~ 2750 3100
Wire Wire Line
	3400 3200 2750 3200
Connection ~ 2750 3200
Wire Wire Line
	3400 3300 2750 3300
Connection ~ 2750 3300
Wire Wire Line
	3400 3400 2750 3400
Connection ~ 2750 3400
Wire Wire Line
	3400 3500 2750 3500
Connection ~ 2750 3500
Wire Wire Line
	3400 3600 2750 3600
Connection ~ 2750 3600
Wire Wire Line
	3400 3700 2750 3700
Connection ~ 2750 3700
Wire Wire Line
	3400 3800 2750 3800
Connection ~ 2750 3800
Wire Wire Line
	3400 3900 2750 3900
Connection ~ 2750 3900
Wire Wire Line
	3400 4000 2750 4000
Connection ~ 2750 4000
Wire Wire Line
	9000 4800 9250 4800
Wire Wire Line
	9250 4800 9250 4500
Wire Wire Line
	9000 2400 9450 2400
Wire Wire Line
	9450 2400 9450 2100
Wire Wire Line
	9450 2100 11100 2100
Wire Wire Line
	9000 2500 9550 2500
Wire Wire Line
	9550 2500 9550 2200
Wire Wire Line
	9550 2200 11100 2200
Wire Wire Line
	9000 2600 9650 2600
Wire Wire Line
	9650 2600 9650 2300
Wire Wire Line
	9650 2300 11100 2300
Wire Wire Line
	9000 2700 9750 2700
Wire Wire Line
	9750 2700 9750 2400
Wire Wire Line
	9750 2400 11100 2400
Wire Wire Line
	9000 2800 9850 2800
Wire Wire Line
	9850 2800 9850 2500
Wire Wire Line
	9850 2500 11100 2500
Wire Wire Line
	9000 2900 9950 2900
Wire Wire Line
	9950 2900 9950 2600
Wire Wire Line
	9950 2600 11100 2600
Wire Wire Line
	9000 3000 10050 3000
Wire Wire Line
	10050 3000 10050 2700
Wire Wire Line
	10050 2700 11100 2700
Wire Wire Line
	9000 3100 10500 3100
Wire Wire Line
	10500 8700 10500 2800
Wire Wire Line
	10500 2800 11100 2800
Wire Wire Line
	9000 3200 10450 3200
Wire Wire Line
	10450 7900 10450 2900
Wire Wire Line
	10450 2900 11100 2900
Wire Wire Line
	11100 3000 10950 3000
Wire Wire Line
	10950 3000 10950 8200
Wire Wire Line
	10950 3100 11100 3100
Wire Wire Line
	10950 3200 11100 3200
Connection ~ 10950 3100
Wire Wire Line
	10950 3400 11100 3400
Wire Wire Line
	10950 3500 11100 3500
Connection ~ 10950 3200
Connection ~ 10950 3400
Wire Wire Line
	9000 3700 10300 3700
Wire Wire Line
	10300 3700 10300 3600
Wire Wire Line
	10300 3600 11100 3600
Wire Wire Line
	9000 3400 10350 3400
Wire Wire Line
	10350 3400 10350 6900
Wire Wire Line
	10350 3800 11100 3800
Wire Wire Line
	11100 3900 10300 3900
Wire Wire Line
	10300 3800 10300 7000
Wire Wire Line
	10300 3800 9000 3800
Wire Wire Line
	10250 3600 10250 7100
Wire Wire Line
	10250 4000 11100 4000
Wire Wire Line
	9000 4000 10200 4000
Wire Wire Line
	10200 4000 10200 7200
Wire Wire Line
	10200 4100 11100 4100
Wire Wire Line
	9000 3500 10150 3500
Wire Wire Line
	10150 3500 10150 7300
Wire Wire Line
	10150 4200 11100 4200
Wire Wire Line
	9000 4100 10100 4100
Wire Wire Line
	10100 4100 10100 7400
Wire Wire Line
	10100 4300 11100 4300
Wire Wire Line
	9000 3900 10050 3900
Wire Wire Line
	10050 3900 10050 7500
Wire Wire Line
	10050 4400 11100 4400
Wire Wire Line
	9000 4200 10000 4200
Wire Wire Line
	10000 4200 10000 7600
Wire Wire Line
	10000 4500 11100 4500
Connection ~ 10950 3500
Wire Wire Line
	11900 2100 12350 2100
Wire Wire Line
	12350 2100 12350 8150
Wire Wire Line
	11900 2200 12350 2200
Connection ~ 12350 2200
Wire Wire Line
	11900 2300 12350 2300
Connection ~ 12350 2300
Wire Wire Line
	11900 2400 12350 2400
Connection ~ 12350 2400
Wire Wire Line
	11900 2500 12350 2500
Connection ~ 12350 2500
Wire Wire Line
	11900 2600 12350 2600
Connection ~ 12350 2600
Wire Wire Line
	11900 2700 12350 2700
Connection ~ 12350 2700
Wire Wire Line
	11900 2800 12350 2800
Connection ~ 12350 2800
Wire Wire Line
	11900 2900 12350 2900
Connection ~ 12350 2900
Wire Wire Line
	11900 3000 12350 3000
Connection ~ 12350 3000
Wire Wire Line
	11900 3100 12350 3100
Connection ~ 12350 3100
Wire Wire Line
	11900 3200 12350 3200
Connection ~ 12350 3200
Wire Wire Line
	11900 3400 12350 3400
Connection ~ 12350 3400
Wire Wire Line
	11900 3500 12350 3500
Connection ~ 12350 3500
Wire Wire Line
	11900 3600 12350 3600
Connection ~ 12350 3600
Wire Wire Line
	11900 3700 12350 3700
Connection ~ 12350 3700
Wire Wire Line
	11900 3800 12350 3800
Connection ~ 12350 3800
Wire Wire Line
	11900 3900 12350 3900
Connection ~ 12350 3900
Wire Wire Line
	11900 4000 12350 4000
Connection ~ 12350 4000
Wire Wire Line
	11900 4100 12350 4100
Connection ~ 12350 4100
Wire Wire Line
	11900 4200 12350 4200
Connection ~ 12350 4200
Wire Wire Line
	11900 4300 12350 4300
Connection ~ 12350 4300
Wire Wire Line
	11900 4400 12350 4400
Connection ~ 12350 4400
Wire Wire Line
	11900 4500 12350 4500
Connection ~ 12350 4500
Wire Wire Line
	11100 3300 10700 3300
Wire Wire Line
	10700 1800 10700 6400
Wire Wire Line
	10700 1800 13000 1800
Wire Wire Line
	12550 1800 12550 6400
Wire Wire Line
	12550 3300 11900 3300
Wire Wire Line
	11900 5200 12350 5200
Connection ~ 12350 5200
Wire Wire Line
	11900 5300 12350 5300
Connection ~ 12350 5300
Wire Wire Line
	11900 5400 12350 5400
Connection ~ 12350 5400
Wire Wire Line
	11900 5500 12350 5500
Connection ~ 12350 5500
Wire Wire Line
	11900 5600 12350 5600
Connection ~ 12350 5600
Wire Wire Line
	11900 5700 12350 5700
Connection ~ 12350 5700
Wire Wire Line
	11900 5800 12350 5800
Connection ~ 12350 5800
Wire Wire Line
	11900 5900 12350 5900
Connection ~ 12350 5900
Wire Wire Line
	11900 6000 12350 6000
Connection ~ 12350 6000
Wire Wire Line
	11900 6100 12350 6100
Connection ~ 12350 6100
Wire Wire Line
	11900 6200 12350 6200
Connection ~ 12350 6200
Wire Wire Line
	11900 6300 12350 6300
Connection ~ 12350 6300
Wire Wire Line
	11900 6500 12350 6500
Connection ~ 12350 6500
Wire Wire Line
	11900 6600 12350 6600
Connection ~ 12350 6600
Wire Wire Line
	11900 6700 12350 6700
Connection ~ 12350 6700
Wire Wire Line
	11900 6800 12350 6800
Connection ~ 12350 6800
Wire Wire Line
	11900 6900 12350 6900
Connection ~ 12350 6900
Wire Wire Line
	11900 7000 12350 7000
Connection ~ 12350 7000
Wire Wire Line
	11900 7100 12350 7100
Connection ~ 12350 7100
Wire Wire Line
	11900 7200 12350 7200
Connection ~ 12350 7200
Wire Wire Line
	11900 7300 12350 7300
Connection ~ 12350 7300
Wire Wire Line
	11900 7400 12350 7400
Connection ~ 12350 7400
Wire Wire Line
	11900 7500 12350 7500
Connection ~ 12350 7500
Wire Wire Line
	11900 7600 12350 7600
Connection ~ 12350 7600
Wire Wire Line
	10000 7600 11100 7600
Connection ~ 10000 4500
Wire Wire Line
	10050 7500 11100 7500
Connection ~ 10050 4400
Wire Wire Line
	10100 7400 11100 7400
Connection ~ 10100 4300
Wire Wire Line
	10150 7300 11100 7300
Connection ~ 10150 4200
Wire Wire Line
	10200 7200 11100 7200
Connection ~ 10200 4100
Wire Wire Line
	10250 7100 11100 7100
Connection ~ 10250 4000
Wire Wire Line
	10300 7000 11100 7000
Connection ~ 10300 3900
Wire Wire Line
	10350 6900 11100 6900
Connection ~ 10350 3800
Wire Wire Line
	10400 3600 10400 6700
Wire Wire Line
	10400 6700 11100 6700
Connection ~ 10400 3600
Wire Wire Line
	11100 6600 10950 6600
Connection ~ 10950 6600
Wire Wire Line
	11100 6500 10950 6500
Connection ~ 10950 6500
Wire Wire Line
	10700 6400 11100 6400
Connection ~ 10700 3300
Wire Wire Line
	11100 6300 10950 6300
Connection ~ 10950 6300
Wire Wire Line
	11100 6200 10950 6200
Connection ~ 10950 6200
Wire Wire Line
	11100 6100 10950 6100
Connection ~ 10950 6100
Wire Wire Line
	10450 6000 11100 6000
Connection ~ 10450 3200
Wire Wire Line
	10500 5900 11100 5900
Connection ~ 10500 3100
Wire Wire Line
	11100 5800 10550 5800
Wire Wire Line
	10550 8600 10550 2700
Connection ~ 10550 2700
Wire Wire Line
	11100 5700 10600 5700
Wire Wire Line
	10600 8500 10600 2600
Connection ~ 10600 2600
Wire Wire Line
	11100 5600 10650 5600
Wire Wire Line
	10650 8400 10650 2500
Connection ~ 10650 2500
Wire Wire Line
	11100 5500 10750 5500
Wire Wire Line
	10750 8300 10750 2400
Connection ~ 10750 2400
Wire Wire Line
	11100 5400 10800 5400
Wire Wire Line
	10800 8200 10800 2300
Connection ~ 10800 2300
Wire Wire Line
	11100 5300 10850 5300
Wire Wire Line
	10850 8100 10850 2200
Connection ~ 10850 2200
Wire Wire Line
	11100 5200 10900 5200
Wire Wire Line
	10900 8000 10900 2100
Connection ~ 10900 2100
Wire Wire Line
	9000 3600 10250 3600
Wire Wire Line
	2750 5350 3400 5350
Wire Wire Line
	3400 5450 2750 5450
Wire Wire Line
	3400 5550 2750 5550
Wire Wire Line
	3400 5650 2750 5650
Wire Wire Line
	3400 5750 2750 5750
Wire Wire Line
	3400 5850 2750 5850
Wire Wire Line
	3400 5950 2750 5950
Wire Wire Line
	3400 6050 2750 6050
Wire Wire Line
	3400 6150 2750 6150
Wire Wire Line
	3400 6250 2750 6250
Wire Wire Line
	3400 6350 2750 6350
Wire Wire Line
	3400 6450 2750 6450
Wire Wire Line
	3400 6550 2750 6550
Wire Wire Line
	3400 6650 2750 6650
Wire Wire Line
	3400 6750 2750 6750
Wire Wire Line
	3400 6850 2750 6850
Wire Wire Line
	3400 6950 2750 6950
Wire Wire Line
	2900 7150 3400 7150
Wire Wire Line
	3400 4100 2850 4100
Wire Wire Line
	2850 4100 2850 7050
Wire Wire Line
	2850 7050 3400 7050
Wire Wire Line
	3400 7250 2950 7250
Wire Wire Line
	2950 7250 2950 4300
Wire Wire Line
	2950 4300 3400 4300
Connection ~ 2900 7150
Connection ~ 5000 4600
Wire Wire Line
	4200 6850 5000 6850
Connection ~ 5000 6850
Wire Wire Line
	4550 2400 4550 5350
Wire Wire Line
	4550 5350 4200 5350
Connection ~ 4550 2400
Wire Wire Line
	4200 5450 4600 5450
Wire Wire Line
	4600 5450 4600 2500
Connection ~ 4600 2500
Wire Wire Line
	4200 5550 4650 5550
Wire Wire Line
	4650 5550 4650 2600
Connection ~ 4650 2600
Wire Wire Line
	4200 5650 4700 5650
Wire Wire Line
	4700 5650 4700 2700
Connection ~ 4700 2700
Wire Wire Line
	4200 5750 4750 5750
Wire Wire Line
	4750 5750 4750 2800
Connection ~ 4750 2800
Wire Wire Line
	4200 5850 4800 5850
Wire Wire Line
	4800 5850 4800 2900
Connection ~ 4800 2900
Wire Wire Line
	4200 5950 4850 5950
Wire Wire Line
	4850 5950 4850 3000
Connection ~ 4850 3000
Wire Wire Line
	4200 6050 4900 6050
Wire Wire Line
	4900 6050 4900 3100
Connection ~ 4900 3100
Wire Wire Line
	4200 6150 5050 6150
Wire Wire Line
	5050 6150 5050 3200
Connection ~ 5050 3200
Wire Wire Line
	4200 6250 5100 6250
Wire Wire Line
	5100 6250 5100 3300
Connection ~ 5100 3300
Wire Wire Line
	4200 6350 5150 6350
Wire Wire Line
	5150 6350 5150 3400
Connection ~ 5150 3400
Wire Wire Line
	4200 3500 5200 3500
Wire Wire Line
	5200 3500 5200 6450
Wire Wire Line
	5200 6450 4200 6450
Wire Wire Line
	4200 6550 5250 6550
Wire Wire Line
	5250 6550 5250 3600
Connection ~ 5250 3600
Wire Wire Line
	5300 6650 4200 6650
Wire Wire Line
	5300 3700 5300 6650
Wire Wire Line
	4200 6750 5350 6750
Wire Wire Line
	5350 6750 5350 3800
Connection ~ 5000 3800
Wire Wire Line
	4200 6950 5400 6950
Wire Wire Line
	5400 6950 5400 4000
Wire Wire Line
	5400 4000 4200 4000
Wire Wire Line
	4200 7050 5450 7050
Wire Wire Line
	5450 7050 5450 4100
Wire Wire Line
	5450 4100 4200 4100
Wire Wire Line
	4200 7150 5500 7150
Wire Wire Line
	5500 7150 5500 4200
Wire Wire Line
	5500 4200 4200 4200
Wire Wire Line
	5550 7250 4200 7250
Connection ~ 5550 4300
Connection ~ 5300 3900
Wire Wire Line
	5300 3700 4200 3700
Wire Wire Line
	6550 3300 7100 3300
Wire Wire Line
	12550 6400 11900 6400
Connection ~ 12550 3300
Wire Wire Line
	8350 5550 10050 5550
Connection ~ 10050 5550
Wire Wire Line
	8350 5850 10000 5850
Connection ~ 10000 5850
Wire Wire Line
	8350 5950 10250 5950
Connection ~ 10250 5950
Wire Wire Line
	8350 6050 10400 6050
Connection ~ 10400 6050
Wire Wire Line
	8350 6150 10300 6150
Connection ~ 10300 6150
Wire Wire Line
	8350 6250 10350 6250
Connection ~ 10350 6250
Wire Wire Line
	8350 6550 8500 6550
Wire Wire Line
	8500 6550 8500 6350
Connection ~ 8500 6350
Wire Wire Line
	8350 6650 8550 6650
Wire Wire Line
	8550 6650 8550 6250
Connection ~ 8550 6250
Wire Wire Line
	8350 6750 8600 6750
Wire Wire Line
	8600 6750 8600 6150
Connection ~ 8600 6150
Wire Wire Line
	8350 6850 8650 6850
Wire Wire Line
	8650 6850 8650 6050
Connection ~ 8650 6050
Wire Wire Line
	8350 6950 8700 6950
Wire Wire Line
	8700 6950 8700 5950
Connection ~ 8700 5950
Wire Wire Line
	8350 7050 8750 7050
Wire Wire Line
	8750 7050 8750 5850
Connection ~ 8750 5850
Wire Wire Line
	8350 7150 8800 7150
Wire Wire Line
	8800 7150 8800 5750
Connection ~ 8800 5750
Wire Wire Line
	8350 7250 8850 7250
Wire Wire Line
	8850 7250 8850 5650
Connection ~ 8850 5650
Wire Wire Line
	8350 7350 8900 7350
Wire Wire Line
	8900 7350 8900 5550
Connection ~ 8900 5550
$Comp
L VDD #PWR08
U 1 1 5A2C8318
P 9900 5000
F 0 "#PWR08" H 9900 5100 30  0001 C CNN
F 1 "VDD" H 9900 5110 30  0000 C CNN
F 2 "" H 9900 5000 60  0000 C CNN
F 3 "" H 9900 5000 60  0000 C CNN
	1    9900 5000
	1    0    0    -1  
$EndComp
Wire Wire Line
	8350 5450 9000 5450
$Comp
L GND #PWR09
U 1 1 5A2C8557
P 8900 7600
F 0 "#PWR09" H 8900 7600 30  0001 C CNN
F 1 "GND" H 8900 7530 30  0001 C CNN
F 2 "" H 8900 7600 60  0000 C CNN
F 3 "" H 8900 7600 60  0000 C CNN
	1    8900 7600
	1    0    0    -1  
$EndComp
Wire Wire Line
	8350 7450 8900 7450
Wire Wire Line
	8900 7450 8900 7600
Connection ~ 10500 5900
Wire Wire Line
	8350 8700 10500 8700
Wire Wire Line
	8350 8600 10550 8600
Connection ~ 10550 5800
Wire Wire Line
	8350 8500 10600 8500
Connection ~ 10600 5700
Wire Wire Line
	8350 8400 10650 8400
Connection ~ 10650 5600
Wire Wire Line
	8350 8300 10750 8300
Connection ~ 10750 5500
Wire Wire Line
	8350 8200 10800 8200
Connection ~ 10800 5400
Wire Wire Line
	8350 8100 10850 8100
Connection ~ 10850 5300
Wire Wire Line
	8350 8000 10900 8000
Connection ~ 10900 5200
Wire Wire Line
	8350 7900 10450 7900
Connection ~ 10450 6000
Wire Wire Line
	8350 8900 8550 8900
Wire Wire Line
	8550 8900 8550 8700
Connection ~ 8550 8700
Wire Wire Line
	8350 9000 8600 9000
Wire Wire Line
	8600 9000 8600 8600
Connection ~ 8600 8600
Wire Wire Line
	8350 9100 8650 9100
Wire Wire Line
	8650 9100 8650 8500
Connection ~ 8650 8500
Wire Wire Line
	8350 9200 8700 9200
Wire Wire Line
	8700 9200 8700 8400
Connection ~ 8700 8400
Wire Wire Line
	8350 9300 8750 9300
Wire Wire Line
	8750 9300 8750 8300
Connection ~ 8750 8300
Wire Wire Line
	8350 9400 8800 9400
Wire Wire Line
	8800 9400 8800 8200
Connection ~ 8800 8200
Wire Wire Line
	8350 9500 8850 9500
Wire Wire Line
	8850 9500 8850 8100
Connection ~ 8850 8100
Wire Wire Line
	8350 9600 8900 9600
Wire Wire Line
	8900 9600 8900 8000
Connection ~ 8900 8000
Wire Wire Line
	8350 9700 8950 9700
Wire Wire Line
	8950 9700 8950 7900
Connection ~ 8950 7900
$Comp
L GND #PWR010
U 1 1 5A2CA8E6
P 8900 10000
F 0 "#PWR010" H 8900 10000 30  0001 C CNN
F 1 "GND" H 8900 9930 30  0001 C CNN
F 2 "" H 8900 10000 60  0000 C CNN
F 3 "" H 8900 10000 60  0000 C CNN
	1    8900 10000
	1    0    0    -1  
$EndComp
Wire Wire Line
	9000 7800 8350 7800
Wire Wire Line
	8350 9800 8900 9800
Wire Wire Line
	8900 9800 8900 10000
Text Label 4350 5350 0    60   ~ 0
D0
Text Label 4350 5450 0    60   ~ 0
D1
Text Label 4350 5550 0    60   ~ 0
D2
Text Label 4350 5650 0    60   ~ 0
D3
Text Label 4350 5750 0    60   ~ 0
D4
Text Label 4350 5850 0    60   ~ 0
D5
Text Label 4350 5950 0    60   ~ 0
D6
Text Label 4350 6050 0    60   ~ 0
D7
Text Label 4350 6150 0    60   ~ 0
A0
Text Label 4350 6250 0    60   ~ 0
A1
Text Label 4350 6350 0    60   ~ 0
A2
Text Label 4350 6450 0    60   ~ 0
PORT40H
Text Label 4350 6550 0    60   ~ 0
XWR
Text Label 4350 6650 0    60   ~ 0
RD
Text Label 4350 6750 0    60   ~ 0
VDD
Text Label 4350 6850 0    60   ~ 0
M1
Text Label 4350 6950 0    60   ~ 0
IORQ
Text Label 4350 7050 0    60   ~ 0
HALT
Text Label 4350 7150 0    60   ~ 0
FSIDE
Text Label 4350 7250 0    60   ~ 0
RESET
Text Label 3000 7250 0    60   ~ 0
IEO
Text Label 3000 7150 0    60   ~ 0
PORT60H
Text Label 3000 7050 0    60   ~ 0
INT
Text Notes 3350 9250 0    79   ~ 0
MicroBee Requires Modification on Pin 29\nRemove 3.375MHZ clock out\nAdd VDD Power to this pin
Text Label 4250 4000 0    60   ~ 0
IORQ
Text Label 4250 4200 0    60   ~ 0
FSIDE
Text Label 4250 4100 0    60   ~ 0
HALT
Text Label 4250 3500 0    60   ~ 0
PORT40H
Text Label 9100 2400 0    60   ~ 0
DB0
Text Label 9100 2500 0    60   ~ 0
DB1
Text Label 9100 2600 0    60   ~ 0
DB2
Text Label 9100 2700 0    60   ~ 0
DB3
Text Label 9100 2800 0    60   ~ 0
DB4
Text Label 9100 2900 0    60   ~ 0
DB5
Text Label 9100 3000 0    60   ~ 0
DB6
Text Label 9100 3100 0    60   ~ 0
DB7
Text Label 9100 3200 0    60   ~ 0
DBP
Text Label 9100 3400 0    60   ~ 0
BSY
Text Label 9100 3500 0    60   ~ 0
SEL
Text Label 9100 3600 0    60   ~ 0
RST
Text Label 9100 3700 0    60   ~ 0
ATN
Text Label 9100 3800 0    60   ~ 0
ACK
Text Label 9100 3900 0    60   ~ 0
REQ
Text Label 9100 4000 0    60   ~ 0
MSG
Text Label 9100 4100 0    60   ~ 0
C/D
Text Label 9100 4200 0    60   ~ 0
I/O
$Comp
L JUMPER JP1
U 1 1 5A39122D
P 9500 5250
F 0 "JP1" H 9500 5400 60  0000 C CNN
F 1 "JUMPER" H 9500 5170 40  0000 C CNN
F 2 "~" H 9500 5250 60  0000 C CNN
F 3 "~" H 9500 5250 60  0000 C CNN
	1    9500 5250
	-1   0    0    -1  
$EndComp
Connection ~ 12550 1800
$Comp
L VDD #PWR011
U 1 1 5A3914BD
P 14550 1200
F 0 "#PWR011" H 14550 1300 30  0001 C CNN
F 1 "VDD" H 14550 1310 30  0000 C CNN
F 2 "" H 14550 1200 60  0000 C CNN
F 3 "" H 14550 1200 60  0000 C CNN
	1    14550 1200
	-1   0    0    -1  
$EndComp
Wire Wire Line
	13600 1800 14550 1800
Wire Wire Line
	14550 1800 14550 1200
Connection ~ 2750 5350
Connection ~ 2750 5450
Connection ~ 2750 5550
Connection ~ 2750 5650
Connection ~ 2750 5750
Connection ~ 2750 5850
Connection ~ 2750 5950
Connection ~ 2750 6050
Connection ~ 2750 6150
Connection ~ 2750 6250
Connection ~ 2750 6350
Connection ~ 2750 6450
Connection ~ 2750 6550
Connection ~ 2750 6650
Connection ~ 2750 6750
Connection ~ 2750 6850
Connection ~ 2750 6950
$Comp
L 74LS32 U2
U 4 1 5A4B846B
P 1800 10750
F 0 "U2" H 1800 10800 60  0000 C CNN
F 1 "74LS32" H 1800 10700 60  0000 C CNN
F 2 "~" H 1800 10750 60  0000 C CNN
F 3 "~" H 1800 10750 60  0000 C CNN
	4    1800 10750
	1    0    0    1   
$EndComp
$Comp
L 74LS32 U2
U 1 1 5A4B847A
P 6100 10750
F 0 "U2" H 6100 10800 60  0000 C CNN
F 1 "74LS32" H 6100 10700 60  0000 C CNN
F 2 "~" H 6100 10750 60  0000 C CNN
F 3 "~" H 6100 10750 60  0000 C CNN
	1    6100 10750
	1    0    0    1   
$EndComp
$Comp
L 74LS32 U2
U 2 1 5A4B8483
P 3900 10750
F 0 "U2" H 3900 10800 60  0000 C CNN
F 1 "74LS32" H 3900 10700 60  0000 C CNN
F 2 "~" H 3900 10750 60  0000 C CNN
F 3 "~" H 3900 10750 60  0000 C CNN
	2    3900 10750
	1    0    0    1   
$EndComp
$Comp
L VCC #PWR012
U 1 1 5A4B8673
P 5250 2100
F 0 "#PWR012" H 5250 2200 30  0001 C CNN
F 1 "VCC" H 5250 2200 30  0000 C CNN
F 2 "" H 5250 2100 60  0000 C CNN
F 3 "" H 5250 2100 60  0000 C CNN
	1    5250 2100
	1    0    0    -1  
$EndComp
Wire Wire Line
	5250 2100 5250 2200
Wire Wire Line
	5250 2200 5000 2200
Connection ~ 5000 2200
Wire Wire Line
	8350 5650 10200 5650
Connection ~ 10200 5650
Wire Wire Line
	8350 5750 10100 5750
Connection ~ 10100 5750
Wire Wire Line
	8350 6350 10150 6350
Connection ~ 10150 6350
Wire Wire Line
	11100 6800 10950 6800
Connection ~ 10950 6800
Wire Wire Line
	11100 3700 10950 3700
Connection ~ 10950 3700
$Comp
L JUMPER JP2
U 1 1 5A6B06C8
P 13300 1800
F 0 "JP2" H 13300 1950 60  0000 C CNN
F 1 "JUMPER" H 13300 1720 40  0000 C CNN
F 2 "~" H 13300 1800 60  0000 C CNN
F 3 "~" H 13300 1800 60  0000 C CNN
	1    13300 1800
	1    0    0    -1  
$EndComp
Wire Wire Line
	9000 5250 9000 7800
Wire Wire Line
	9200 5250 9000 5250
Connection ~ 9000 5450
Wire Wire Line
	9900 5000 9900 5250
Wire Wire Line
	9900 5250 9800 5250
$EndSCHEMATC
